StartFontMetrics 3.0
MetricsSets 1
FontName RicohMGothicM-RKSJ-V
Weight Medium
FontBBox -82 -206 973 801
EncodingScheme FontSpecific
MappingScheme 6
IsBaseFont false
CapHeight  1000
Ascender   880
Descender  120
EndFontMetrics
