StartFontMetrics 3.0
MetricsSets 1
FontName Ryumin-Medium-RKSJ-V
Weight Medium
FontBBox -20 -211 1028 894
EncodingScheme FontSpecific
MappingScheme 6
IsBaseFont false
CapHeight  1000
Ascender   880
Descender  120
EndFontMetrics
