StartFontMetrics 3.0
MetricsSets 1
FontName TypeBankM-m-RKSJ-V
Weight Medium
FontBBox -82 -206 976 801
EncodingScheme FontSpecific
MappingScheme 6
IsBaseFont false
CapHeight  1000
Ascender   880
Descender  120
EndFontMetrics

