StartFontMetrics 3.0
MetricsSets 0
FontName DFPOP1-W7-HK-BF
Weight Bold
FontBBox 0 -140 1000 860
EncodingScheme FontSpecific
MappingScheme 2
IsBaseFont false
CapHeight  1000
Ascender   880
Descender  120
EndFontMetrics
